{
    "model" : {
        "architecture":         "MobileNet",
        "input_size":           224,
        "anchors":              [0.57273, 0.677385, 1.87446, 2.06253, 3.33843, 5.47434, 7.88282, 3.52778, 9.77052, 9.16828],
        "labels":               ["raccoon"],
        "coord_scale" : 		1.0,
        "class_scale" : 		1.0,
        "object_scale" : 		5.0,
        "no_object_scale" : 	1.0
    },
    "pretrained" : {
        "full":   				""
    },
    "train" : {
        "actual_epoch":         20,
        "train_image_folder":   "/home/ubuntu/backup/raccoon_dataset/images",
        "train_annot_folder":   "/home/ubuntu/backup/raccoon_dataset/annotations",
        "train_times":          2,
        "valid_image_folder":   "/home/ubuntu/backup/raccoon_dataset/images_valid",
        "valid_annot_folder":   "/home/ubuntu/backup/raccoon_dataset/annotations_valid",
        "valid_times":          2,
        "batch_size":           4,
        "learning_rate":        1e-4,
        "saved_folder":   		"raccoon",
        "first_trainable_layer": "",
        "jitter":				true,
        "is_only_detect" : 		false
    }
}
